[{"filesize": "", "keyword": "", "list": [{"ID": "03df988d3cf44c9e97efda8af61b2c89", "EPS_NAME": "河南天葵生物科技有限公司", "PRODUCT_SN": "豫妆20160051", "CITY_CODE": "20", "XK_COMPLETE_DATE": {"date": 31, "day": 5, "hours": 0, "minutes": 0, "month": 11, "nanos": 0, "seconds": 0, "time": 1640880000000, "timezoneOffset": -480, "year": 121}, "XK_DATE": "2026-12-31", "QF_MANAGER_NAME": "河南省食品药品监督管理局", "BUSINESS_LICENSE_NUMBER": "91410400352018765Y", "XC_DATE": "2021-12-31", "NUM_": 1}, {"ID": "8d9a8d22eb76468c8011ca65fa332255", "EPS_NAME": "厦门上新日用化学制品有限公司", "PRODUCT_SN": "闽妆20160016", "CITY_CODE": "136", "XK_COMPLETE_DATE": {"date": 18, "day": 1, "hours": 0, "minutes": 0, "month": 9, "nanos": 0, "seconds": 0, "time": 1634486400000, "timezoneOffset": -480, "year": 121}, "XK_DATE": "2026-10-18", "QF_MANAGER_NAME": "福建省药品监督管理局", "BUSINESS_LICENSE_NUMBER": "91350200776045513K", "XC_DATE": "2021-10-18", "NUM_": 2}, {"ID": "5195831e20414508bc136044344c06c0", "EPS_NAME": "伊势半（天津）化妆品有限公司", "PRODUCT_SN": "津妆20160008", "CITY_CODE": "417", "XK_COMPLETE_DATE": {"date": 11, "day": 6, "hours": 0, "minutes": 0, "month": 8, "nanos": 0, "seconds": 0, "time": 1631289600000, "timezoneOffset": -480, "year": 121}, "XK_DATE": "2026-09-11", "QF_MANAGER_NAME": "天津市市场和质量监督管理委员会", "BUSINESS_LICENSE_NUMBER": "9112011666881838X9", "XC_DATE": "2021-09-11", "NUM_": 3}, {"ID": "c30826bc89e84831814d9098e8dfaf38", "EPS_NAME": "香格里拉市甘露生物资源有限公司", "PRODUCT_SN": "云妆20160008", "CITY_CODE": "217", "XK_COMPLETE_DATE": {"date": 28, "day": 6, "hours": 0, "minutes": 0, "month": 7, "nanos": 0, "seconds": 0, "time": 1630080000000, "timezoneOffset": -480, "year": 121}, "XK_DATE": "2026-08-28", "QF_MANAGER_NAME": "云南省食品药品监督管理局", "BUSINESS_LICENSE_NUMBER": "91533421594553808C", "XC_DATE": "2021-08-28", "NUM_": 4}, {"ID": "8877ecf499d846bd90d3747a3bc7e6d4", "EPS_NAME": "清远市伯堂生物科技有限公司", "PRODUCT_SN": "粤妆20161310", "CITY_CODE": null, "XK_COMPLETE_DATE": {"date": 27, "day": 5, "hours": 0, "minutes": 0, "month": 7, "nanos": 0, "seconds": 0, "time": 1629993600000, "timezoneOffset": -480, "year": 121}, "XK_DATE": "2026-08-26", "QF_MANAGER_NAME": "广东省药品监督管理局", "BUSINESS_LICENSE_NUMBER": "91441802MA4UHUME0F", "XC_DATE": "2021-08-27", "NUM_": 5}, {"ID": "5607ef48881a4dc2a4cb357ae03337fe", "EPS_NAME": "汕头市莲达旅游用品实业有限公司", "PRODUCT_SN": "粤妆20161264", "CITY_CODE": null, "XK_COMPLETE_DATE": {"date": 27, "day": 5, "hours": 0, "minutes": 0, "month": 7, "nanos": 0, "seconds": 0, "time": 1629993600000, "timezoneOffset": -480, "year": 121}, "XK_DATE": "2026-08-26", "QF_MANAGER_NAME": "广东省药品监督管理局", "BUSINESS_LICENSE_NUMBER": "91440514666450083A", "XC_DATE": "2021-08-27", "NUM_": 6}, {"ID": "a00430f77f494ee48640d1be061fa1b9", "EPS_NAME": "四川暨康生物医药科技有限公司", "PRODUCT_SN": "川妆20210005", "CITY_CODE": "165", "XK_COMPLETE_DATE": {"date": 27, "day": 5, "hours": 0, "minutes": 0, "month": 7, "nanos": 0, "seconds": 0, "time": 1629993600000, "timezoneOffset": -480, "year": 121}, "XK_DATE": "2026-06-20", "QF_MANAGER_NAME": "四川省药品监督管理局", "BUSINESS_LICENSE_NUMBER": "91510183MA6CNGNM4R", "XC_DATE": "2021-08-27", "NUM_": 7}, {"ID": "52b7e570866a41c1a2571aff916ddee8", "EPS_NAME": "广州婉美药业有限公司", "PRODUCT_SN": "粤妆20210238", "CITY_CODE": null, "XK_COMPLETE_DATE": {"date": 26, "day": 4, "hours": 0, "minutes": 0, "month": 7, "nanos": 0, "seconds": 0, "time": 1629907200000, "timezoneOffset": -480, "year": 121}, "XK_DATE": "2026-08-25", "QF_MANAGER_NAME": "广东省药品监督管理局", "BUSINESS_LICENSE_NUMBER": "91440101MA9XTXPD7Q", "XC_DATE": "2021-08-26", "NUM_": 8}, {"ID": "aafdb961439440c089190fadc8224889", "EPS_NAME": "奥俐莱雅（广东）家化科技有限公司", "PRODUCT_SN": "粤妆20170397", "CITY_CODE": null, "XK_COMPLETE_DATE": {"date": 26, "day": 4, "hours": 0, "minutes": 0, "month": 7, "nanos": 0, "seconds": 0, "time": 1629907200000, "timezoneOffset": -480, "year": 121}, "XK_DATE": "2026-08-25", "QF_MANAGER_NAME": "广东省药品监督管理局", "BUSINESS_LICENSE_NUMBER": "91440512MA4UTWRT6M", "XC_DATE": "2021-08-26", "NUM_": 9}, {"ID": "405bda07613849d0864d4feb1d5356ae", "EPS_NAME": "广州天斯秀尔化妆品有限公司", "PRODUCT_SN": "粤妆20161351", "CITY_CODE": null, "XK_COMPLETE_DATE": {"date": 26, "day": 4, "hours": 0, "minutes": 0, "month": 7, "nanos": 0, "seconds": 0, "time": 1629907200000, "timezoneOffset": -480, "year": 121}, "XK_DATE": "2026-08-25", "QF_MANAGER_NAME": "广东省药品监督管理局", "BUSINESS_LICENSE_NUMBER": "914401117733232236", "XC_DATE": "2021-08-26", "NUM_": 10}, {"ID": "5f31a92e8f714fbcbfcf60ef11cf37d3", "EPS_NAME": "广州盛妍精细化工有限公司", "PRODUCT_SN": "粤妆20161328", "CITY_CODE": null, "XK_COMPLETE_DATE": {"date": 26, "day": 4, "hours": 0, "minutes": 0, "month": 7, "nanos": 0, "seconds": 0, "time": 1629907200000, "timezoneOffset": -480, "year": 121}, "XK_DATE": "2026-08-25", "QF_MANAGER_NAME": "广东省药品监督管理局", "BUSINESS_LICENSE_NUMBER": "914401113044272067", "XC_DATE": "2021-08-26", "NUM_": 11}, {"ID": "baa0296771ef41a39206098d1e2f666f", "EPS_NAME": "广州吉呈化妆品有限公司", "PRODUCT_SN": "粤妆20161326", "CITY_CODE": null, "XK_COMPLETE_DATE": {"date": 26, "day": 4, "hours": 0, "minutes": 0, "month": 7, "nanos": 0, "seconds": 0, "time": 1629907200000, "timezoneOffset": -480, "year": 121}, "XK_DATE": "2026-08-25", "QF_MANAGER_NAME": "广东省药品监督管理局", "BUSINESS_LICENSE_NUMBER": "91440111786087928M", "XC_DATE": "2021-08-26", "NUM_": 12}, {"ID": "ddc26281e3494e5b8a697b9560069656", "EPS_NAME": "惠州市乐得伦化妆品有限公司", "PRODUCT_SN": "粤妆20161162", "CITY_CODE": null, "XK_COMPLETE_DATE": {"date": 26, "day": 4, "hours": 0, "minutes": 0, "month": 7, "nanos": 0, "seconds": 0, "time": 1629907200000, "timezoneOffset": -480, "year": 121}, "XK_DATE": "2021-11-15", "QF_MANAGER_NAME": "广东省药品监督管理局", "BUSINESS_LICENSE_NUMBER": "9144130307354026XE", "XC_DATE": "2021-08-26", "NUM_": 13}, {"ID": "b1af6594d3e1494fa0e3557e736cad9f", "EPS_NAME": "广州由美化妆品有限公司", "PRODUCT_SN": "粤妆20161154", "CITY_CODE": null, "XK_COMPLETE_DATE": {"date": 26, "day": 4, "hours": 0, "minutes": 0, "month": 7, "nanos": 0, "seconds": 0, "time": 1629907200000, "timezoneOffset": -480, "year": 121}, "XK_DATE": "2026-08-25", "QF_MANAGER_NAME": "广东省药品监督管理局", "BUSINESS_LICENSE_NUMBER": "91440111749938236T", "XC_DATE": "2021-08-26", "NUM_": 14}, {"ID": "fc65e6a1cd8c4fcba50a868cc7b16d04", "EPS_NAME": "广东芙妍化妆品有限公司", "PRODUCT_SN": "粤妆20161077", "CITY_CODE": null, "XK_COMPLETE_DATE": {"date": 26, "day": 4, "hours": 0, "minutes": 0, "month": 7, "nanos": 0, "seconds": 0, "time": 1629907200000, "timezoneOffset": -480, "year": 121}, "XK_DATE": "2026-08-25", "QF_MANAGER_NAME": "广东省药品监督管理局", "BUSINESS_LICENSE_NUMBER": "914401147264984421", "XC_DATE": "2021-08-26", "NUM_": 15}], "orderBy": "createDate", "orderType": "desc", "pageCount": 380, "pageNumber": 1, "pageSize": 15, "property": "", "totalCount": 5699}]